%!PS-Adobe-3.0 EPSF-3.0
%%Creator: cairo 1.14.2 (http://cairographics.org)
%%CreationDate: Mon Mar  7 16:49:58 2016
%%Pages: 1
%%DocumentData: Clean7Bit
%%LanguageLevel: 2
%%BoundingBox: 0 -1 17 19
%%EndComments
%%BeginProlog
save
50 dict begin
/q { gsave } bind def
/Q { grestore } bind def
/cm { 6 array astore concat } bind def
/w { setlinewidth } bind def
/J { setlinecap } bind def
/j { setlinejoin } bind def
/M { setmiterlimit } bind def
/d { setdash } bind def
/m { moveto } bind def
/l { lineto } bind def
/c { curveto } bind def
/h { closepath } bind def
/re { exch dup neg 3 1 roll 5 3 roll moveto 0 rlineto
      0 exch rlineto 0 rlineto closepath } bind def
/S { stroke } bind def
/f { fill } bind def
/f* { eofill } bind def
/n { newpath } bind def
/W { clip } bind def
/W* { eoclip } bind def
/BT { } bind def
/ET { } bind def
/pdfmark where { pop globaldict /?pdfmark /exec load put }
    { globaldict begin /?pdfmark /pop load def /pdfmark
    /cleartomark load def end } ifelse
/BDC { mark 3 1 roll /BDC pdfmark } bind def
/EMC { mark /EMC pdfmark } bind def
/cairo_store_point { /cairo_point_y exch def /cairo_point_x exch def } def
/Tj { show currentpoint cairo_store_point } bind def
/TJ {
  {
    dup
    type /stringtype eq
    { show } { -0.001 mul 0 cairo_font_matrix dtransform rmoveto } ifelse
  } forall
  currentpoint cairo_store_point
} bind def
/cairo_selectfont { cairo_font_matrix aload pop pop pop 0 0 6 array astore
    cairo_font exch selectfont cairo_point_x cairo_point_y moveto } bind def
/Tf { pop /cairo_font exch def /cairo_font_matrix where
      { pop cairo_selectfont } if } bind def
/Td { matrix translate cairo_font_matrix matrix concatmatrix dup
      /cairo_font_matrix exch def dup 4 get exch 5 get cairo_store_point
      /cairo_font where { pop cairo_selectfont } if } bind def
/Tm { 2 copy 8 2 roll 6 array astore /cairo_font_matrix exch def
      cairo_store_point /cairo_font where { pop cairo_selectfont } if } bind def
/g { setgray } bind def
/rg { setrgbcolor } bind def
/d1 { setcachedevice } bind def
%%EndProlog
%%BeginSetup
%%EndSetup
%%Page: 1 1
%%BeginPageSetup
%%PageBoundingBox: 0 -1 17 19
%%EndPageSetup
q 0 -1 17 20 rectclip q
0.0784314 0.572549 0.815686 rg
8.16 18.8 m 3.68 18.8 0 17.601 0 16.081 c 0 15.679 0.961 9.999 1.359 7.761
 c 1.52 6.722 4.16 5.28 8.16 5.28 c 12.16 5.28 14.719 6.722 14.961 7.761
 c 15.359 9.999 16.32 15.679 16.32 16.081 c 16.238 17.601 12.641 18.8 8.16
 18.8 c h
8.16 7.12 m 6.719 7.12 5.602 8.241 5.602 9.679 c 5.602 11.12 6.719 12.241
 8.16 12.241 c 9.602 12.241 10.719 11.12 10.719 9.679 c 10.719 8.32 9.602
 7.12 8.16 7.12 c h
8.16 15.28 m 5.281 15.28 2.961 15.761 2.961 16.402 c 2.961 17.038 5.281
 17.519 8.16 17.519 c 11.039 17.519 13.359 17.038 13.359 16.402 c 13.359
 15.761 11.039 15.28 8.16 15.28 c h
8.16 15.28 m f
14 5.601 m 13.84 5.601 13.762 5.519 13.762 5.519 c 13.762 5.519 11.762 
3.921 8.16 3.921 c 4.559 3.921 2.559 5.519 2.559 5.519 c 2.559 5.519 2.398
 5.601 2.32 5.601 c 2.16 5.601 2 5.519 2 5.28 c 2 5.198 l 2.32 3.519 2.559
 2.32 2.559 2.159 c 2.801 0.96 5.199 -0.001 8.078 -0.001 c 10.961 -0.001
 13.359 0.96 13.602 2.159 c 13.602 2.32 13.84 3.519 14.16 5.198 c 14.16 
5.28 l 14.238 5.441 14.16 5.601 14 5.601 c h
14 5.601 m f
9.441 9.761 m 9.441 9.054 8.867 8.48 8.16 8.48 c 7.453 8.48 6.879 9.054
 6.879 9.761 c 6.879 10.468 7.453 11.038 8.16 11.038 c 8.867 11.038 9.441
 10.468 9.441 9.761 c h
9.441 9.761 m f
Q Q
showpage
%%Trailer
end restore
%%EOF
